DS202 lab 5
…
    # Hour of day
    acc %>% group_by(HOUR) %>% summarise(n = n())

## # A tibble: 25 x 2
##     HOUR     n
##    <int> <int>
##  1     0  1321
##  2     1  1177
##  3     2  1241
##  4     3   957
##  5     4   813
##  6     5  1065
##  7     6  1282
##  8     7  1162
##  9     8   945
## 10     9   929
## #  with 15 more rows
…
